{
  "project_info": {
    "project_number": "9576398893",
    "project_id": "loginregistrarse",
    "storage_bucket": "loginregistrarse.appspot.com"
  },
  "client": [
    {
      "client_info": {
        "mobilesdk_app_id": "1:9576398893:android:13751abc9b412c8fb778a4",
        "android_client_info": {
          "package_name": "com.example.loginregistrarse"
        }
      },
      "oauth_client": [],
      "api_key": [
        {
          "current_key": "AIzaSyAG4ukQC2BC8Nz8muR8pS2u5Oon-owMs7o"
        }
      ],
      "services": {
        "appinvite_service": {
          "other_platform_oauth_client": []
        }
      }
    }
  ],
  "configuration_version": "1"
}